{
  "ntuple_dir": "/eos/atlas/unpledged/group-wisc/users/zhangr/Hmumu/ntuple/v1/",
  "ntuple_subdir": {
    "data": "data"
  },
  "processes": {
    "data": [
      "periodD",
      "periodE"
    ]
  },
  "process_files": {
    "data": {
      "periodD": [
        "*00427305*/*tree_output.root",
        "*00427338*/*tree_output.root",
        "*00427394*/*tree_output.root",
        "*00427405*/*tree_output.root",
        "*00427489*/*tree_output.root",
        "*00427514*/*tree_output.root",
        "*00427877*/*tree_output.root",
        "*00427882*/*tree_output.root",
        "*00427883*/*tree_output.root",
        "*00427884*/*tree_output.root",
        "*00427885*/*tree_output.root",
        "*00427891*/*tree_output.root",
        "*00427892*/*tree_output.root",
        "*00427910*/*tree_output.root",
        "*00427911*/*tree_output.root",
        "*00427914*/*tree_output.root",
        "*00427927*/*tree_output.root",
        "*00427929*/*tree_output.root",
        "*00428071*/*tree_output.root",
        "*00428241*/*tree_output.root",
        "*00428242*/*tree_output.root",
        "*00428243*/*tree_output.root",
        "*00428353*/*tree_output.root",
        "*00428411*/*tree_output.root",
        "*00428412*/*tree_output.root",
        "*00428527*/*tree_output.root",
        "*00428580*/*tree_output.root"
      ],
      "periodE": [
        "*00428617*/*tree_output.root",
        "*00428747*/*tree_output.root",
        "*00428759*/*tree_output.root",
        "*00428770*/*tree_output.root",
        "*00428832*/*tree_output.root"
      ]
    }
  }
}
